{
  "prepare_queue": {
    "installed": [],
    "uninstalled": []
  },
  "config_munge": {
    "files": {}
  },
  "installed_plugins": {
    "call-number": {
      "PACKAGE_NAME": "com.OneQlikVTS.ionic"
    },
    "com.telerik.plugins.nativepagetransitions": {
      "PACKAGE_NAME": "com.OneQlikVTS.ionic"
    },
    "cordova-plugin-app-update": {
      "PACKAGE_NAME": "com.OneQlikVTS.ionic"
    },
    "cordova-plugin-app-version": {
      "PACKAGE_NAME": "com.OneQlikVTS.ionic"
    },
    "cordova-plugin-camera": {
      "PACKAGE_NAME": "com.OneQlikVTS.ionic"
    },
    "cordova-plugin-file": {
      "PACKAGE_NAME": "com.OneQlikVTS.ionic"
    },
    "cordova-plugin-file-transfer": {
      "PACKAGE_NAME": "com.OneQlikVTS.ionic"
    },
    "cordova-plugin-filepath": {
      "PACKAGE_NAME": "com.OneQlikVTS.ionic"
    },
    "cordova-plugin-geolocation": {
      "PACKAGE_NAME": "com.OneQlikVTS.ionic"
    },
    "cordova-plugin-googlemaps": {
      "PACKAGE_NAME": "com.OneQlikVTS.ionic"
    },
    "cordova-plugin-inappbrowser": {
      "PACKAGE_NAME": "com.OneQlikVTS.ionic"
    },
    "cordova-plugin-nativegeocoder": {
      "PACKAGE_NAME": "com.OneQlikVTS.ionic"
    },
    "cordova-plugin-networkinterface": {
      "PACKAGE_NAME": "com.OneQlikVTS.ionic"
    },
    "cordova-plugin-splashscreen": {
      "PACKAGE_NAME": "com.OneQlikVTS.ionic"
    },
    "cordova-plugin-statusbar": {
      "PACKAGE_NAME": "com.OneQlikVTS.ionic"
    },
    "cordova-plugin-tts": {
      "PACKAGE_NAME": "com.OneQlikVTS.ionic"
    },
    "cordova-plugin-whitelist": {
      "PACKAGE_NAME": "com.OneQlikVTS.ionic"
    },
    "cordova-plugin-x-socialsharing": {
      "PACKAGE_NAME": "com.OneQlikVTS.ionic"
    },
    "cordova-sms-plugin": {
      "PACKAGE_NAME": "com.OneQlikVTS.ionic"
    },
    "phonegap-plugin-push": {
      "PACKAGE_NAME": "com.OneQlikVTS.ionic"
    },
    "uk.co.workingedge.phonegap.plugin.launchnavigator": {
      "PACKAGE_NAME": "com.OneQlikVTS.ionic"
    }
  },
  "dependent_plugins": {
    "cordova-plugin-actionsheet": {
      "PACKAGE_NAME": "com.OneQlikVTS.ionic"
    },
    "cordova-plugin-appversion": {
      "PACKAGE_NAME": "com.OneQlikVTS.ionic"
    },
    "cordova-plugin-dialogs": {
      "PACKAGE_NAME": "com.OneQlikVTS.ionic"
    },
    "es6-promise-plugin": {
      "PACKAGE_NAME": "com.OneQlikVTS.ionic"
    },
    "cordova-support-google-services": {
      "PACKAGE_NAME": "com.OneQlikVTS.ionic"
    },
    "phonegap-plugin-multidex": {
      "PACKAGE_NAME": "com.OneQlikVTS.ionic"
    }
  }
}